The STOC free model
…
---
## Setup

- To demonstrate how to use the package, we will use the `herdBTM` dataset

```r
herdBTM
```

```
## # A tibble: 876 x 6
##    Farm  DateOfTest   ODR Test    TestResult LocalSeroPrev
##    <chr> <date>     <dbl> <chr>        <dbl>         <dbl>
##  1 FR001 2014-02-04  57.6 BTM_ODR          1          0.12
##  2 FR001 2014-03-01  NA   confirm          1          0.12
##  3 FR001 2014-09-10  66.5 BTM_ODR          1          0.1 
##  4 FR001 2014-10-01  NA   confirm          1          0.1 
##  5 FR001 2015-02-01  52.5 BTM_ODR          1          0.08
##  6 FR001 2015-03-01  NA   confirm          1          0.08
##  7 FR001 2015-09-03  46.7 BTM_ODR          1          0.1 
##  8 FR001 2015-10-01  NA   confirm          0          0.1 
##  9 FR001 2016-02-18  38.3 BTM_ODR          1          0.22
## 10 FR001 2016-03-01  NA   confirm          0          0.22
## # ... with 866 more rows
```
…
- When risk factors are added, priors for coefficients of the logistic regression need to be provided

---
## Adding risk factors to the model

- We will use the intro dataset from the `STOCfree` package as an example
 - Contains the same herds as `herdBTM`
 - The risk factor in the data is the number of cattle introduced

```r
intro
```

```
## # A tibble: 1,324 x 3
##    Farm  dateIntr   nAnim
##    <chr> <fct>      <int>
##  1 FR001 2010-01-22     1
##  2 FR001 2015-05-04    14
##  3 FR002 2011-02-11     2
##  4 FR002 2010-12-23     5
##  5 FR003 2012-11-07     3
##  6 FR003 2016-05-25     5
##  7 FR005 2016-03-31    13
##  8 FR005 2016-04-20    17
##  9 FR008 2012-06-04     2
## 10 FR008 2010-04-30     1
## # ... with 1,314 more rows
```
…
